{
  "cmd_id": "AGTX_CMD_DIP_TE",
  "json_content": {
    "video_dev_idx": 0,
    "mode": 0,
    "normal_ctl": [
      0,
      16,
      32,
      64,
      113,
      172,
      236,
      300,
      364,
      505,
      664,
      835,
      1017,
      1205,
      1398,
      1593,
      1790,
      1986,
      2181,
      2375,
      2565,
      2752,
      2936,
      3116,
      3292,
      3633,
      3957,
      4266,
      4561,
      4841,
      5111,
      5368,
      5618,
      5858,
      6092,
      6320,
      6543,
      6763,
      6981,
      7197,
      7411,
      7839,
      8271,
      8710,
      9157,
      9615,
      10085,
      10567,
      11060,
      11562,
      12072,
      12587,
      13103,
      13618,
      14127,
      14623,
      15104,
      15561,
      15991,
      16384
    ],
    "wdr_ctl": {
      "brightness": 6400,
      "strength": 512,
      "saliency": 512,
      "iso_weight": 128,
      "dark_enhance": 0,
      "iso_max": 16000,
      "noise_cstr": [
        960,
        960,
        960,
        960,
        960,
        1024,
        1024,
        1024,
        1024,
        1024,
        1024
      ],
      "interval": 0,
      "precision": 0
    },
    "wdr_auto_ctl": {
      "dri_type": "GAMMA_DOMAIN_HIST_CV",
      "dri_gain": [
        1024,
        1024,
        1024,
        1024,
        1024,
        1024,
        1024,
        1024,
        1024,
        1024,
        1024
      ],
      "dri_offset": [
        0,
        0,
        0,
        0,
        0,
        0,
        0,
        0,
        0,
        0,
        0
      ],
      "strength": [
        512,
        512,
        512,
        512,
        512,
        512,
        512,
        512,
        512
      ],
      "brightness": [
        5658,
        5658,
        5658,
        5658,
        5658,
        5658,
        5658,
        5658,
        5658
      ],
      "iso_max": 3200,
      "saliency": [
        512,
        512,
        512,
        512,
        512,
        512,
        512,
        512,
        512
      ],
      "noise_cstr": [
        32,
        544,
        800,
        928,
        992,
        1024,
        1024,
        1024,
        1024,
        1024,
        1024
      ],
      "dark_enhance": [
        16,
        16,
        16,
        16,
        16,
        16,
        16,
        16,
        16
      ],
      "iso_weight": 128,
      "interval": 0,
      "precision": 2
    }
  }
}