{
  "cmd_id": "AGTX_CMD_DIP_SHP",
  "json_content": {
    "video_dev_idx": 0,
    "mode": 0,
    "manual_shp": 128,
    "auto_shp_table": [
      200,
      150,
      90,
      50,
      30,
      10,
      0,
      0,
      0,
      0,
      0
    ]
  }
}