{
  "cmd_id": "AGTX_CMD_DIP_NR",
  "json_content": {
    "video_dev_idx": 0,
    "mode": 0,
    "motion_comp": 2,
    "ghost_remove": 0,
    "ma_y_strength": 30,
    "mc_y_strength": 30,
    "ma_c_strength": 24,
    "ratio_3d": 4,
    "trail_suppress": 0,
    "mc_y_level_offset": 0,
    "me_frame_fallback_en": 0,
    "auto_y_level_3d_list": [
      131,
      161,
      181,
      201,
      201,
      201,
      201,
      221,
      231,
      247,
      247
    ],
    "auto_c_level_3d_list": [
      16,
      32,
      64,
      87,
      130,
      160,
      180,
      210,
      230,
      240,
      240
    ],
    "auto_y_level_2d_list": [
      32,
      64,
      96,
      128,
      128,
      128,
      128,
      128,
      128,
      128,
      128
    ],
    "auto_c_level_2d_list": [
      32,
      64,
      96,
      128,
      128,
      128,
      128,
      128,
      128,
      128,
      128
    ],
    "manual_y_level_3d": 0,
    "manual_c_level_3d": 0,
    "manual_y_level_2d": 0,
    "manual_c_level_2d": 0
  }
}