{
  "cmd_id": "AGTX_CMD_DIP_TE",
  "json_content": {
    "video_dev_idx": 0,
    "mode": 1,
    "normal_ctl": [
      0,
      16,
      32,
      64,
      113,
      172,
      230,
      280,
      340,
      460,
      580,
      600,
      740,
      880,
      1030,
      1200,
      1370,
      1540,
      1700,
      1860,
      2048,
      2176,
      2304,
      2432,
      2560,
      2816,
      3072,
      3328,
      3584,
      3840,
      4096,
      4352,
      4608,
      4864,
      5120,
      5376,
      5632,
      5888,
      6144,
      6400,
      6656,
      7168,
      7680,
      8192,
      8704,
      9216,
      9728,
      10240,
      10752,
      11264,
      11776,
      12288,
      12800,
      13312,
      13824,
      14336,
      14848,
      15360,
      15872,
      16384
    ],
    "wdr_ctl": {
      "brightness": 6500,
      "strength": 512,
      "saliency": 512,
      "iso_weight": 128,
      "dark_enhance": 0,
      "iso_max": 16000,
      "noise_cstr": [
        960,
        960,
        960,
        960,
        1024,
        1024,
        1024,
        1024,
        1024,
        1024,
        1024
      ],
      "interval": 0,
      "precision": 2
    },
    "wdr_auto_ctl": {
      "dri_type": "GAMMA_DOMAIN_HIST_CV",
      "dri_gain": [
        1024,
        1024,
        1024,
        1024,
        1024,
        1024,
        1024,
        1024,
        1024,
        1024,
        1024
      ],
      "dri_offset": [
        0,
        0,
        0,
        0,
        0,
        0,
        0,
        0,
        0,
        0,
        0
      ],
      "strength": [
        512,
        512,
        512,
        512,
        512,
        512,
        512,
        512,
        512
      ],
      "brightness": [
        5658,
        5658,
        5658,
        5658,
        5658,
        5658,
        5658,
        5658,
        5658
      ],
      "iso_max": 3200,
      "saliency": [
        512,
        512,
        512,
        512,
        512,
        512,
        512,
        512,
        512
      ],
      "noise_cstr": [
        32,
        544,
        800,
        928,
        992,
        1024,
        1024,
        1024,
        1024,
        1024,
        1024
      ],
      "dark_enhance": [
        16,
        16,
        16,
        16,
        16,
        16,
        16,
        16,
        16
      ],
      "iso_weight": 128,
      "interval": 0,
      "precision": 2
    }
  }
}