{
  "cmd_id": "AGTX_CMD_DIP_AE",
  "json_content": {
    "video_dev_idx": 0,
    "brightness": 7000,
    "exp_strategy": "NORMAL",
    "exp_strength": 2,
    "roi_luma_weight": 1,
    "roi_awb_weight": 1,
    "max_sys_gain": 8192,
    "min_sys_gain": 32,
    "max_sensor_gain": 2048,
    "min_sensor_gain": 32,
    "max_isp_gain": 512,
    "min_isp_gain": 32,
    "fps_mode": "VARIABLE",
    "frame_rate": 30,
    "slow_frame_rate": 15,
    "gain_thr_up": 1024,
    "gain_thr_down": 2048,
    "speed": 160,
    "black_speed_bias": 128,
    "interval": 0,
    "tolerance": 1280,
    "white_delay_frame": 0,
    "black_delay_frame": 7,
    "anti_flicker": {
      "enable": true,
      "frequency": 60,
      "luma_delta": 0
    },
    "manual": {
      "enabled": false,
      "flag": 18,
      "exp_value": 3200,
      "inttime": 8000,
      "isp_gain": 32,
      "sensor_gain": 32,
      "sys_gain": 32
    },
    "max_inttime": 10000000,
    "min_inttime": 0
  }
}