{
  "cmd_id": "AGTX_CMD_DIP_DBC",
  "json_content": {
    "video_dev_idx": 0,
    "dbc": [
      {
        "mode": 2,
        "dbc_level": 3837
      },
      {
        "mode": 2,
        "dbc_level": 3837
      }
    ]
  }
}