{
  "cmd_id": "AGTX_CMD_GPIO_CONF",
  "json_content": {
    "gpio_alias": [
      {
        "name": "PUSH_BUTTON_IN",
        "dir": "IN",
        "pin_num": 12,
        "value": 0
      },
      {
        "name": "LIGHT_SENSOR_IN",
        "dir": "IN",
        "pin_num": -1,
        "value": 0
      },
      {
        "name": "PIR_IN",
        "dir": "IN",
        "pin_num": 2,
        "value": 0
      },
      {
        "name": "PIR2_IN",
        "dir": "IN",
        "pin_num": 1,
        "value": 0
      },
      {
        "name": "PIR3_IN",
        "dir": "IN",
        "pin_num": 0,
        "value": 0
      },
      {
        "name": "SD_CARD_IN",
        "dir": "IN",
        "pin_num": -1,
        "value": 0
      },
      {
        "name": "IRCUT0_OUT",
        "dir": "OUT",
        "pin_num": 10,
        "value": 0
      },
      {
        "name": "IRCUT1_OUT",
        "dir": "OUT",
        "pin_num": 11,
        "value": 0
      },
      {
        "name": "ALARM_OUT",
        "dir": "OUT",
        "pin_num": -1,
        "value": 0
      },
      {
        "name": "IRLED_OUT",
        "dir": "OUT",
        "pin_num": 56,
        "value": 0
      },
      {
        "name": "LED0_OUT",//GREEN_LED_OUT
        "dir": "OUT",
        "pin_num": 73,
        "value": 0
      },
      {
        "name": "LED1_OUT",//RED_LED_OUT
        "dir": "OUT",
        "pin_num": 70,
        "value": 1
      },
      {
        "name": "",
        "dir": "IN",
        "pin_num": -1,
        "value": -1
      }
    ]
  }
}
