{
  "cmd_id": "AGTX_CMD_VIDEO_PTZ_CONF",
  "json_content": {
    "enabled": 0,
	"mode": "AUTO",
	"roi_width": 256,
    "roi_height": 256,
    "win_speed_x": 0,
    "win_speed_y": 0,
    "subwindow_disp": {
		"win_num": 1,
		"win": [{
			"chn_idx": 1,
			"win_idx": 0
		}]
    }
  }
}
