{
  "cmd_id": "AGTX_CMD_PRODUCT_OPTION",
  "json_content": {
    "video_option": [
      {
        "res": [
          {
            "width": 1920,
            "height": 1080,
            "max_frame_rate": [
              20,
              20,
              0,
              0,
              0,
              0,
              0,
              0
            ],
            "frame_rate_list": [
              20,
              19,
              18,
              17,
              16,
              15,
              14,
              13,
              12,
              11,
              10,
              9,
              8,
              7,
              6,
              5,
              4,
              3,
              2,
              1
            ]
          }
        ],
        "venc": [
          {
            "codec": "H264",
            "profile": [
              "BASELINE",
              "MAIN",
              "HIGH"
            ],
            "rc_mode": [
              "CBR",
              "VBR"
            ],
            "min_bit_rate": 64,
            "max_bit_rate": 1536,
            "cbr_param": {
              "min_q_factor": 1,
              "max_q_factor": 100
            },
            "vbr_param": {
              "min_quality_range": 0,
              "max_quality_range": 0
            },
            "min_gop_size": 1,
            "max_gop_size": 120
          },
          {
            "codec": "H265",
            "profile": [
              "MAIN"
            ],
            "rc_mode": [
              "CBR",
              "VBR"
            ],
            "min_bit_rate": 64,
            "max_bit_rate": 1536,
            "cbr_param": {
              "min_q_factor": 1,
              "max_q_factor": 100
            },
            "vbr_param": {
              "min_quality_range": 0,
              "max_quality_range": 0
            },
            "min_gop_size": 1,
            "max_gop_size": 120
          },
          {
            "codec": "MJPEG",
            "profile": [
              "BASELINE"
            ],
            "rc_mode": [
              "CBR",
              "VBR"
            ],
            "min_bit_rate": 64,
            "max_bit_rate": 1536,
            "cbr_param": {
              "min_q_factor": 1,
              "max_q_factor": 100
            },
            "vbr_param": {
              "min_quality_range": 0,
              "max_quality_range": 0
            },
            "min_gop_size": 1,
            "max_gop_size": 120
          }
        ]
      },
      {
      "res": [         
          {
            "width": 640,
            "height": 360,
            "max_frame_rate": [
              0,
              20,
              0,
              0,
              0,
              0,
              0,
              0
            ],
            "frame_rate_list": [              
              20,
              19,
              18,
              17,
              16,
              15,
              14,
              13,
              12,
              11,
              10,
              9,
              8,
              7,
              6,
              5,
              4,
              3,
              2,
              1
            ]
          }
        ],
        "venc": [
          {
            "codec": "H264",
            "profile": [
              "BASELINE",
              "MAIN",
              "HIGH"
            ],
            "rc_mode": [
              "CBR",
              "VBR"
            ],
            "min_bit_rate": 64,
            "max_bit_rate": 512,
            "cbr_param": {
              "min_q_factor": 1,
              "max_q_factor": 100
            },
            "vbr_param": {
              "min_quality_range": 0,
              "max_quality_range": 0
            },
            "min_gop_size": 1,
            "max_gop_size": 120
          },
          {
            "codec": "H265",
            "profile": [
              "MAIN"
            ],
            "rc_mode": [
              "CBR",
              "VBR"
            ],
            "min_bit_rate": 64,
            "max_bit_rate": 512,
            "cbr_param": {
              "min_q_factor": 1,
              "max_q_factor": 100
            },
            "vbr_param": {
              "min_quality_range": 0,
              "max_quality_range": 0
            },
            "min_gop_size": 1,
            "max_gop_size": 120
          },
          {
            "codec": "MJPEG",
            "profile": [
              "BASELINE"
            ],
            "rc_mode": [
              "CBR",
              "VBR"
            ],
            "min_bit_rate": 64,
            "max_bit_rate": 512,
            "cbr_param": {
              "min_q_factor": 1,
              "max_q_factor": 100
            },
            "vbr_param": {
              "min_quality_range": 0,
              "max_quality_range": 0
            },
            "min_gop_size": 1,
            "max_gop_size": 120
          }
        ]
      }
    ]
  }
}
