{
  "version": "HC1703_HC1783S_r3_4_7",
  "module": "dip_enh",
  "cmd_id": "AGTX_CMD_DIP_ENH",
  "json_content": {
    "video_dev_idx": 0,
    "mode": 0,
    "auto_y_txr_strength_list": [
      0,
      0,
      0,
      0,
      0,
      0,
      0,
      0,
      0,
      0,
      0
    ],
    "auto_y_txr_edge_list": [
      32,
      32,
      32,
      32,
      32,
      32,
      32,
      32,
      32,
      32,
      32
    ],
    "auto_y_txr_detail_list": [
      0,
      0,
      0,
      0,
      0,
      0,
      0,
      0,
      0,
      0,
      0
    ],
    "auto_y_zone_strength_list": [
      0,
      0,
      0,
      0,
      0,
      0,
      0,
      0,
      0,
      0,
      0
    ],
    "auto_y_zone_edge_list": [
      32,
      32,
      32,
      32,
      32,
      32,
      32,
      32,
      32,
      32,
      32
    ],
    "auto_y_zone_detail_list": [
      0,
      0,
      0,
      0,
      0,
      0,
      0,
      0,
      0,
      0,
      0
    ],
    "auto_y_zone_radius_list": [
      0,
      0,
      0,
      0,
      0,
      0,
      0,
      0,
      0,
      0,
      0
    ],
    "auto_y_zone_weight_list": [
      128,
      128,
      128,
      128,
      128,
      128,
      128,
      128,
      128,
      128,
      128
    ],
    "auto_c_radius_list": [
      0,
      0,
      0,
      0,
      0,
      0,
      0,
      0,
      0,
      0,
      0
    ],
    "auto_c_strength_list": [
      0,
      0,
      0,
      0,
      0,
      0,
      0,
      0,
      0,
      0,
      0
    ],
    "auto_c_edge_list": [
      0,
      0,
      0,
      0,
      0,
      0,
      0,
      0,
      0,
      0,
      0
    ],
    "manual_y_txr_strength": 0,
    "manual_y_txr_edge": 32,
    "manual_y_txr_detail": 0,
    "manual_y_zone_strength": 0,
    "manual_y_zone_edge": 32,
    "manual_y_zone_detail": 0,
    "manual_y_zone_radius": 0,
    "manual_y_zone_weight": 128,
    "manual_c_radius": 0,
    "manual_c_strength": 0,
    "manual_c_edge": 0
  }
}