{
  "version": "HC1703_HC1783S_r3_4_7",
  "module": "dip_pta",
  "cmd_id": "AGTX_CMD_DIP_PTA",
  "json_content": {
    "video_dev_idx": 0,
    "mode": 0,
    "brightness": 128,
    "contrast": 128,
    "break_point": 64,
    "auto_tone_table": [
      1024,
      1024,
      1024,
      1024,
      1024,
      1024,
      1024,
      1024,
      1024,
      1024,
      1024
    ],
    "curve": [
      0,
      8,
      24,
      51,
      85,
      124,
      167,
      213,
      260,
      308,
      355,
      401,
      446,
      489,
      529,
      568,
      604,
      638,
      670,
      699,
      728,
      754,
      780,
      805,
      829,
      853,
      876,
      900,
      924,
      949,
      974,
      999,
      1024
    ]
  }
}