{
  "cmd_id": "AGTX_CMD_VENC_OPTION",
  "json_content": {
    "strm_idx": -1,
    "strm": [
      {
        "venc_idx": -1,
        "venc": [
          {
            "codec": "H264",
            "profile": [
              "BASELINE",
              "MAIN",
              "HIGH"
            ],
            "rc_mode": [
              "CBR",
              "VBR"
            ],
            "min_bit_rate": 64,
            "max_bit_rate": 1536,
            "cbr_param": {
              "min_q_factor": 1,
              "max_q_factor": 100
            },
            "vbr_param": {
              "min_quality_range": 0,
              "max_quality_range": 0
            },
            "min_gop_size": 1,
            "max_gop_size": 120
          },
          {
            "codec": "H265",
            "profile": [
              "MAIN"
            ],
            "rc_mode": [
              "CBR",
              "VBR"
            ],
            "min_bit_rate": 64,
            "max_bit_rate": 1536,
            "cbr_param": {
              "min_q_factor": 1,
              "max_q_factor": 100
            },
            "vbr_param": {
              "min_quality_range": 0,
              "max_quality_range": 0
            },
            "min_gop_size": 1,
            "max_gop_size": 120
          },
          {
            "codec": "MJPEG",
            "profile": [
              "NONE"
            ],
            "rc_mode": [
              "CBR",
              "VBR"
            ],
            "min_bit_rate": 64,
            "max_bit_rate": 1536,
            "cbr_param": {
              "min_q_factor": 1,
              "max_q_factor": 100
            },
            "vbr_param": {
              "min_quality_range": 0,
              "max_quality_range": 0
            },
            "min_gop_size": 1,
            "max_gop_size": 120
          }
        ]
      },
      {
        "venc_idx": -1,
        "venc": [
          {
            "codec": "H264",
            "profile": [
              "BASELINE",
              "MAIN",
              "HIGH"
            ],
            "rc_mode": [
              "CBR",
              "VBR"
            ],
            "min_bit_rate": 64,
            "max_bit_rate": 1536,
            "cbr_param": {
              "min_q_factor": 1,
              "max_q_factor": 100
            },
            "vbr_param": {
              "min_quality_range": 0,
              "max_quality_range": 0
            },
            "min_gop_size": 1,
            "max_gop_size": 120
          },
          {
            "codec": "H265",
            "profile": [
              "MAIN"
            ],
            "rc_mode": [
              "CBR",
              "VBR"
            ],
            "min_bit_rate": 64,
            "max_bit_rate": 1536,
            "cbr_param": {
              "min_q_factor": 1,
              "max_q_factor": 100
            },
            "vbr_param": {
              "min_quality_range": 0,
              "max_quality_range": 0
            },
            "min_gop_size": 1,
            "max_gop_size": 120
          },
          {
            "codec": "MJPEG",
            "profile": [
              "NONE"
            ],
            "rc_mode": [
              "CBR",
              "VBR"
            ],
            "min_bit_rate": 64,
            "max_bit_rate": 1536,
            "cbr_param": {
              "min_q_factor": 1,
              "max_q_factor": 100
            },
            "vbr_param": {
              "min_quality_range": 0,
              "max_quality_range": 0
            },
            "min_gop_size": 1,
            "max_gop_size": 120
          }
        ]
      },
      {
        "venc_idx": -1,
        "venc": [
          {
            "codec": "H264",
            "profile": [
              "BASELINE",
              "MAIN",
              "HIGH"
            ],
            "rc_mode": [
              "CBR",
              "VBR"
            ],
            "min_bit_rate": 64,
            "max_bit_rate": 1536,
            "cbr_param": {
              "min_q_factor": 1,
              "max_q_factor": 100
            },
            "vbr_param": {
              "min_quality_range": 0,
              "max_quality_range": 0
            },
            "min_gop_size": 1,
            "max_gop_size": 120
          },
          {
            "codec": "H265",
            "profile": [
              "MAIN"
            ],
            "rc_mode": [
              "CBR",
              "VBR"
            ],
            "min_bit_rate": 64,
            "max_bit_rate": 1536,
            "cbr_param": {
              "min_q_factor": 1,
              "max_q_factor": 100
            },
            "vbr_param": {
              "min_quality_range": 0,
              "max_quality_range": 0
            },
            "min_gop_size": 1,
            "max_gop_size": 120
          },
          {
            "codec": "MJPEG",
            "profile": [
              "NONE"
            ],
            "rc_mode": [
              "CBR",
              "VBR"
            ],
            "min_bit_rate": 64,
            "max_bit_rate": 1536,
            "cbr_param": {
              "min_q_factor": 1,
              "max_q_factor": 100
            },
            "vbr_param": {
              "min_quality_range": 0,
              "max_quality_range": 0
            },
            "min_gop_size": 1,
            "max_gop_size": 120
          }
        ]
      }
    ]
  }
}
