{
  "cmd_id": "AGTX_CMD_DIP_SHP",
  "json_content": {
    "video_dev_idx": 0,
    "mode": 0,
    "manual_shp": 128,
    "auto_shp_table": [
      240,
      200,
      140,
      60,
      20,
      0,
      0,
      0,
      0,
      0,
      0
    ]
  }
}