{
    "cmd_id": "AGTX_CMD_PANORAMA_CONF",
    "json_content": {
      "video_dev_idx": 0,
      "center_offset_x": 0,
      "center_offset_y": 0,
      "enable": 1,
      "radius": 4868,
      "curvature": 2500,
      "ldc_ratio": 27000,
      "straighten": 500
    }
}
