{
  "version": "HC1703_HC1783S_r3_4_7",
  "module": "dip_dbc",
  "cmd_id": "AGTX_CMD_DIP_DBC",
  "json_content": {
    "video_dev_idx": 0,
    "dbc": [
      {
        "mode": 2,
        "dbc_level": 968,
        "type": "SAME_BLACK_LEVEL",
        "manual_black_level": [
          0,
          0,
          0,
          0
        ],
        "auto_black_level_0": [
          0,
          0,
          0,
          0
        ],
        "auto_black_level_1": [
          0,
          0,
          0,
          0
        ],
        "auto_black_level_2": [
          0,
          0,
          0,
          0
        ],
        "auto_black_level_3": [
          0,
          0,
          0,
          0
        ],
        "auto_black_level_4": [
          0,
          0,
          0,
          0
        ],
        "auto_black_level_5": [
          0,
          0,
          0,
          0
        ],
        "auto_black_level_6": [
          0,
          0,
          0,
          0
        ],
        "auto_black_level_7": [
          0,
          0,
          0,
          0
        ],
        "auto_black_level_8": [
          0,
          0,
          0,
          0
        ],
        "auto_black_level_9": [
          0,
          0,
          0,
          0
        ],
        "auto_black_level_10": [
          0,
          0,
          0,
          0
        ]
      },
      {
        "mode": 0,
        "dbc_level": 0,
        "type": "SAME_BLACK_LEVEL",
        "manual_black_level": [
          0,
          0,
          0,
          0
        ],
        "auto_black_level_0": [
          0,
          0,
          0,
          0
        ],
        "auto_black_level_1": [
          0,
          0,
          0,
          0
        ],
        "auto_black_level_2": [
          0,
          0,
          0,
          0
        ],
        "auto_black_level_3": [
          0,
          0,
          0,
          0
        ],
        "auto_black_level_4": [
          0,
          0,
          0,
          0
        ],
        "auto_black_level_5": [
          0,
          0,
          0,
          0
        ],
        "auto_black_level_6": [
          0,
          0,
          0,
          0
        ],
        "auto_black_level_7": [
          0,
          0,
          0,
          0
        ],
        "auto_black_level_8": [
          0,
          0,
          0,
          0
        ],
        "auto_black_level_9": [
          0,
          0,
          0,
          0
        ],
        "auto_black_level_10": [
          0,
          0,
          0,
          0
        ]
      }
    ]
  }
}