{
  "version": "HC1703_HC1783S_r3_4_7",
  "module": "dip_te",
  "cmd_id": "AGTX_CMD_DIP_TE",
  "json_content": {
    "video_dev_idx": 0,
    "mode": 0,
    "normal_ctl": [
      0,
      28,
      86,
      157,
      234,
      316,
      404,
      494,
      587,
      779,
      977,
      1179,
      1385,
      1595,
      1807,
      2018,
      2225,
      2427,
      2623,
      2814,
      2999,
      3180,
      3355,
      3524,
      3689,
      4003,
      4297,
      4572,
      4830,
      5070,
      5293,
      5501,
      5693,
      5873,
      6054,
      6240,
      6431,
      6626,
      6827,
      7032,
      7242,
      7675,
      8127,
      8584,
      9016,
      9423,
      9807,
      10240,
      10752,
      11264,
      11776,
      12288,
      12800,
      13312,
      13824,
      14336,
      14848,
      15360,
      15872,
      16384
    ],
    "wdr_ctl": {
      "brightness": 4250,
      "strength": 768,
      "saliency": 512,
      "iso_weight": 150,
      "dark_enhance": 0,
      "iso_max": 1550,
      "noise_cstr": [
        896,
        1024,
        1024,
        1024,
        1024,
        1024,
        1024,
        1024,
        1024,
        1024,
        1024
      ],
      "interval": 4,
      "precision": 2
    },
    "wdr_auto_ctl": {
      "dri_type": "GAMMA_DOMAIN_HIST_CV",
      "dri_gain": [
        64,
        64,
        64,
        64,
        64,
        64,
        64,
        64,
        64,
        64,
        64
      ],
      "dri_offset": [
        0,
        0,
        0,
        0,
        0,
        0,
        0,
        0,
        0,
        0,
        0
      ],
      "strength": [
        512,
        512,
        512,
        512,
        512,
        512,
        512,
        512,
        512
      ],
      "brightness": [
        3000,
        3000,
        3000,
        3000,
        3000,
        3000,
        3000,
        3000,
        3000
      ],
      "iso_max": 3200,
      "saliency": [
        512,
        512,
        512,
        512,
        512,
        512,
        512,
        512,
        512
      ],
      "noise_cstr": [
        0,
        0,
        0,
        0,
        0,
        0,
        0,
        0,
        0,
        0,
        0
      ],
      "dark_enhance": [
        32,
        32,
        32,
        32,
        32,
        32,
        32,
        32,
        32
      ],
      "iso_weight": 128,
      "interval": 0,
      "precision": 2
    }
  }
}