{
  "version": "HC1703_HC1783S_r3_4_7",
  "module": "dip_lsc",
  "cmd_id": "AGTX_CMD_DIP_LSC",
  "json_content": {
    "video_dev_idx": 0,
    "lsc": [
      {
        "origin": 4,
        "x_trend": 3872,
        "y_trend": 2401,
        "x_curvature": 7290,
        "y_curvature": 7767,
        "tilt": 0
      },
      {
        "origin": 4,
        "x_trend": 5448,
        "y_trend": 3852,
        "x_curvature": 11482,
        "y_curvature": 11198,
        "tilt": 0
      }
    ]
  }
}