{
  "version": "HC1703_HC1783S_r3_4_7",
  "module": "dip_dcc",
  "cmd_id": "AGTX_CMD_DIP_DCC",
  "json_content": {
    "video_dev_idx": 0,
    "dcc": [
      {
        "gain": [
          1092,
          1833,
          2093,
          1092
        ],
        "offset": [
          0,
          0,
          0,
          0
        ]
      },
      {
        "gain": [
          1092,
          1910,
          2867,
          1092
        ],
        "offset": [
          0,
          0,
          0,
          0
        ]
      }
    ]
  }
}