{
  "version": "HC1703_HC1783S_r3_4_7",
  "module": "dip_pta",
  "cmd_id": "AGTX_CMD_DIP_PTA",
  "json_content": {
    "video_dev_idx": 0,
    "mode": 1,
    "brightness": 128,
    "contrast": 140,
    "break_point": 16,
    "auto_tone_table": [
      1024,
      980,
      970,
      950,
      950,
      950,
      950,
      950,
      950,
      950,
      950
    ],
    "curve": [
      0,
      1,
      4,
      32,
      96,
      138,
      176,
      206,
      256,
      280,
      320,
      352,
      384,
      416,
      460,
      490,
      532,
      554,
      586,
      628,
      650,
      682,
      704,
      726,
      778,
      800,
      832,
      884,
      906,
      938,
      950,
      972,
      1024
    ]
  }
}