{
  "version": "HC1703_HC1783S_r3_4_7",
  "module": "dip_fcs",
  "cmd_id": "AGTX_CMD_DIP_FCS",
  "json_content": {
    "video_dev_idx": 0,
    "mode": 0,
    "auto_strength_list": [
      0,
      0,
      0,
      0,
      0,
      0,
      0,
      0,
      0,
      0,
      0
    ],
    "auto_threshold_list": [
      0,
      0,
      0,
      0,
      0,
      0,
      0,
      0,
      0,
      0,
      0
    ],
    "auto_offset_list": [
      0,
      0,
      0,
      0,
      0,
      0,
      0,
      0,
      0,
      0,
      0
    ],
    "manual_strength": 0,
    "manual_threshold": 0,
    "manual_offset": 0
  }
}