{
  "version": "HC1703_HC1783S_r3_4_7",
  "module": "dip_iso",
  "cmd_id": "AGTX_CMD_DIP_ISO",
  "json_content": {
    "video_dev_idx": 0,
    "mode": 0,
    "manual_iso": 100,
    "auto_iso_table": [
      200,
      400,
      800,
      1600,
      3200,
      6400,
      12800,
      25600,
      51200,
      76800,
      102400
    ]
  }
}