{
  "cmd_id": "AGTX_CMD_DIP_ROI",
  "json_content": {
    "video_dev_idx": 0,
    "roi": [
      {
        "luma_roi_sx": 41,
        "luma_roi_sy": 251,
        "luma_roi_ex": 983,
        "luma_roi_ey": 763,
        "awb_roi_sx": 41,
        "awb_roi_sy": 251,
        "awb_roi_ex": 983,
        "awb_roi_ey": 763,
        "zone_lum_avg_roi_sx": 0,
        "zone_lum_avg_roi_sy": 0,
        "zone_lum_avg_roi_ex": 1024,
        "zone_lum_avg_roi_ey": 1024
      },
      {
        "luma_roi_sx": 41,
        "luma_roi_sy": 251,
        "luma_roi_ex": 983,
        "luma_roi_ey": 763,
        "awb_roi_sx": 41,
        "awb_roi_sy": 251,
        "awb_roi_ex": 983,
        "awb_roi_ey": 763,
        "zone_lum_avg_roi_sx": 0,
        "zone_lum_avg_roi_sy": 0,
        "zone_lum_avg_roi_ex": 1024,
        "zone_lum_avg_roi_ey": 1024
      }
    ]
  }
}