{
  "cmd_id": "AGTX_CMD_DIP_GAMMA",
  "json_content": {
    "video_dev_idx": 0,
    "gamma": 0,
    "gamma_manual": [
      0,
      64,
      128,
      192,
      256,
      320,
      384,
      448,
      512,
      640,
      768,
      896,
      1024,
      1152,
      1280,
      1408,
      1536,
      1664,
      1792,
      1920,
      2048,
      2176,
      2304,
      2432,
      2560,
      2816,
      3072,
      3328,
      3584,
      3840,
      4096,
      4352,
      4608,
      4864,
      5120,
      5376,
      5632,
      5888,
      6144,
      6400,
      6656,
      7168,
      7680,
      8192,
      8704,
      9216,
      9728,
      10240,
      10752,
      11264,
      11776,
      12288,
      12800,
      13312,
      13824,
      14336,
      14848,
      15360,
      15862,
      16384
    ]
  }
}
