{
  "version": "HC1703_HC1783S_r3_4_7",
  "module": "dip_cal",
  "cmd_id": "AGTX_CMD_DIP_CAL",
  "json_content": {
    "video_dev_idx": 0,
    "cal": [
      {
        "cal_en": 1,
        "dbc_en": 1,
        "dcc_en": 1,
        "lsc_en": 0
      },
      {
        "cal_en": 0,
        "dbc_en": 1,
        "dcc_en": 1,
        "lsc_en": 1
      }
    ]
  }
}