{
  "version": "HC1703_HC1783S_r3_4_7",
  "module": "dip_enh",
  "cmd_id": "AGTX_CMD_DIP_ENH",
  "json_content": {
    "video_dev_idx": 0,
    "mode": 0,
    "auto_y_txr_strength_list": [
      0,
      0,
      8,
      16,
      32,
      128,
      164,
      256,
      396,
      512,
      1023
    ],
    "auto_y_txr_edge_list": [
      32,
      32,
      32,
      32,
      32,
      32,
      32,
      32,
      32,
      32,
      32
    ],
    "auto_y_txr_detail_list": [
      -16,
      -16,
      -16,
      -16,
      -16,
      -16,
      -16,
      -16,
      -16,
      -16,
      -16
    ],
    "auto_y_zone_strength_list": [
      0,
      0,
      8,
      16,
      32,
      128,
      164,
      300,
      396,
      512,
      1023
    ],
    "auto_y_zone_edge_list": [
      32,
      32,
      32,
      32,
      32,
      32,
      32,
      32,
      32,
      32,
      32
    ],
    "auto_y_zone_detail_list": [
      -16,
      -16,
      -16,
      -16,
      -16,
      -16,
      -16,
      -16,
      -16,
      -16,
      -16
    ],
    "auto_y_zone_radius_list": [
      1,
      1,
      1,
      1,
      1,
      1,
      1,
      1,
      2,
      2,
      2
    ],
    "auto_y_zone_weight_list": [
      0,
      0,
      2,
      4,
      8,
      16,
      32,
      96,
      128,
      132,
      140
    ],
    "auto_c_radius_list": [
      1,
      1,
      1,
      2,
      2,
      2,
      2,
      2,
      3,
      3,
      3
    ],
    "auto_c_strength_list": [
      32,
      64,
      96,
      128,
      156,
      196,
      256,
      396,
      460,
      512,
      1023
    ],
    "auto_c_edge_list": [
      32,
      32,
      32,
      32,
      32,
      16,
      8,
      8,
      0,
      0,
      0
    ],
    "manual_y_txr_strength": 128,
    "manual_y_txr_edge": 32,
    "manual_y_txr_detail": -16,
    "manual_y_zone_strength": 128,
    "manual_y_zone_edge": 32,
    "manual_y_zone_detail": -16,
    "manual_y_zone_radius": 1,
    "manual_y_zone_weight": 0,
    "manual_c_radius": 2,
    "manual_c_strength": 1023,
    "manual_c_edge": 0
  }
}