{
	"$schema": "http://json-schema.org/draft-06/schema#",
	"type": "object",
	"title": "MbTestConf",
	"properties": {
		"btn_conf": {
			"title": "BtnConf",
			"type": "object",
			"properties": {
				"btn": {
					"type": "object",
					"title": "Btn",
					"properties": {
						"gpio": {
							"type": "integer"
						},
						"level_on": {
							"type": "integer"
						},
						"level_off": {
							"type": "integer"
						}
					}
				},
				"period": {
					"type": "integer"
				}
			}
		},
		"led_conf": {
			"title": "LedConf",
			"type": "object",
			"properties": {
				"led": {
					"type": "array",
					"minItems": 2,
					"maxItems": 2,
					"items": {
						"type": "object",
						"title": "Led",
						"properties": {
							"gpio": {
								"type": "integer"
							},
							"level_on": {
								"type": "integer"
							},
							"level_off": {
								"type": "integer"
							}
						}
					}
				},
				"period": {
					"type": "integer"
				}
			}
		},
		"sd_conf": {
			"title": "SdConf",
			"type": "object",
			"properties": {
				"format": {
					"type": "object",
					"title": "Format",
					"properties": {
						"station_id": {
							"type": "string",
							"maxLength":128
						},
						"station_name": {
							"type": "string",
							"maxLength":128
						},
						"test_item_name": {
							"type": "string",
							"maxLength":128
						}
					}
				},
				"test_conf_args": {
					"type": "string",
					"maxLength":128
				}
			}
		},
		"video_conf": {
			"title": "VideoConf",
			"type": "object",
			"properties": {
				"format": {
					"type": "object",
					"title": "Format",
					"properties": {
						"station_id": {
							"type": "string",
							"maxLength":128
						},
						"station_name": {
							"type": "string",
							"maxLength":128
						},
						"test_item_name": {
							"type": "string",
							"maxLength":128
						}
					}
				},
				"snapshot_args": {
					"type": "string",
					"maxLength":128
				}
			}
		},
		"audio_conf": {
			"title": "AudioConf",
			"type": "object",
			"properties": {
				"format": {
					"type": "object",
					"title": "Format",
					"properties": {
						"station_id": {
							"type": "string",
							"maxLength":128
						},
						"station_name": {
							"type": "string",
							"maxLength":128
						},
						"test_item_name": {
							"type": "string",
							"maxLength":128
						}
					}
				},
				"mic_args": {
					"type": "string",
					"maxLength":128
				},
				"speaker_args": {
					"type": "string",
					"maxLength":128
				}
			}
		},
		"light_conf": {
			"title": "LightConf",
			"type": "object",
			"properties": {
				"format": {
					"type": "object",
					"title": "Format",
					"properties": {
						"station_id": {
							"type": "string",
							"maxLength":128
						},
						"station_name": {
							"type": "string",
							"maxLength":128
						},
						"test_item_name": {
							"type": "string",
							"maxLength":128
						}
					}
				},
				"adc": {
					"type": "object",
					"title": "Adc",
					"properties": {
						"chn_id": {
							"type": "integer"
						},
						"day_th": {
							"type": "integer"
						},
						"night_th": {
							"type": "integer"
						},
						"min": {
							"type": "integer"
						},
						"max": {
							"type": "integer"
						}
					}
				},
				"ircut": {
					"type": "array",
					"minItems": 2,
					"maxItems": 2,
					"items": {
						"type": "object",
						"title": "IrCut",
						"properties": {
							"gpio": {
								"type": "integer"
							},
							"level_on": {
								"type": "integer"
							},
							"level_off": {
								"type": "integer"
							}
						}
					}
				},
				"irled": {
					"type": "object",
					"title": "IrLed",
					"properties": {
						"gpio": {
							"type": "integer"
						},
						"level_on": {
							"type": "integer"
						},
						"level_off": {
							"type": "integer"
						}
					}
				},
				"period": {
					"type": "integer"
				}
			}
		}
	}
}

