{
  "version": "HC1703_HC1783S_r3_4_7",
  "module": "dip_csm",
  "cmd_id": "AGTX_CMD_DIP_CSM",
  "json_content": {
    "video_dev_idx": 0,
    "mode": 0,
    "hue": 0,
    "bw_en": false,
    "manual_sat": 128,
    "auto_sat_table": [
      133,
      130,
      128,
      120,
      80,
      80,
      80,
      80,
      80,
      80,
      80
    ]
  }
}