{
  "cmd_id": "AGTX_CMD_ADV_IMG_PREF",
  "json_content": {
    "backlight_compensation": 0,
    "night_mode": "AUTO",
    "icr_mode": "AUTO",
    "ir_led_mode": "AUTO",
    "ir_light_suppression" : "12",
    "image_mode": "AUTO",
    "wdr_en": 0,
    "wdr_strength": 0
  }
}
