{
  "cmd_id": "AGTX_CMD_DIP_AWB",
  "json_content": {
    "video_dev_idx": 0,
    "speed": 64,
    "low_k": 2700,
    "high_k": 8000,
    "r_extra_gain": 192,
    "g_extra_gain": 192,
    "b_extra_gain": 192,
    "max_lum_gain": 90,
    "wht_weight": 112,
    "gwd_weight": 112,
    "color_tolerance": 128,
    "wht_density": 0,
    "over_exp_th": 13000,
	"ccm_domain": "GAMMA_ENCODED",
    "k_table_valid_size": 4,
    "k_table_list": [
      {
        "k": 2700,
        "gain": [
          256,
          135,
          516,
          255
        ],
        "maxtrix": [
          2874,
          -284,
          -542,
          -1392,
          3654,
          -214,
          326,
          -3988,
          5710
        ]
      },
      {
        "k": 4150,
        "gain": [
          256,
          221,
          384,
          255
        ],
        "maxtrix": [
          3622,
          -1409,
          -164,
          -1024,
          3169,
          -96,
          331,
          -2216,
          3932
        ]
      },
      {
        "k": 6500,
        "gain": [
          256,
          256,
          253,
          255
        ],
        "maxtrix": [
          3276,
          -1181,
          -47,
          -677,
          3290,
          -564,
          318,
          -1998,
          3727
        ]
      },
      {
        "k": 8000,
        "gain": [
          256,
          277,
          250,
          255
        ],
        "maxtrix": [
          3412,
          -1241,
          -123,
          -545,
          2925,
          -331,
          251,
          -1739,
          3535
        ]
      },
      {
        "k": 0,
        "gain": [
          256,
          256,
          256,
          256
        ],
        "maxtrix": [
          2048,
          0,
          0,
          0,
          2048,
          0,
          0,
          0,
          2048
        ]
      },
      {
        "k": 0,
        "gain": [
          256,
          256,
          256,
          256
        ],
        "maxtrix": [
          2048,
          0,
          0,
          0,
          2048,
          0,
          0,
          0,
          2048
        ]
      },
      {
        "k": 0,
        "gain": [
          256,
          256,
          256,
          256
        ],
        "maxtrix": [
          2048,
          0,
          0,
          0,
          2048,
          0,
          0,
          0,
          2048
        ]
      },
      {
        "k": 0,
        "gain": [
          256,
          256,
          256,
          256
        ],
        "maxtrix": [
          2048,
          0,
          0,
          0,
          2048,
          0,
          0,
          0,
          2048
        ]
      }
    ],
    "k_table_bias_list" : [
      {
        "k" : 2700,
        "color_tolerance_bias" : 0,
        "wht_weight_bias" : 0,
        "gwd_weight_bias" : 0,
        "r_extra_gain_bias" : 0,
        "g_extra_gain_bias" : 0,
        "b_extra_gain_bias" : 0
      },
      {
        "k" : 4150,
        "color_tolerance_bias" : 0,
        "wht_weight_bias" : 0,
        "gwd_weight_bias" : 0,
        "r_extra_gain_bias" : 0,
        "g_extra_gain_bias" : 0,
        "b_extra_gain_bias" : 0
      },
      {
        "k" : 6500,
        "color_tolerance_bias" : 0,
        "wht_weight_bias" : 0,
        "gwd_weight_bias" : 0,
        "r_extra_gain_bias" : 0,
        "g_extra_gain_bias" : 0,
        "b_extra_gain_bias" : 0
      },
      {
        "k" : 8000,
        "color_tolerance_bias" : 0,
        "wht_weight_bias" : 0,
        "gwd_weight_bias" : 0,
        "r_extra_gain_bias" : 0,
        "g_extra_gain_bias" : 0,
        "b_extra_gain_bias" : 0
      },
      {
        "k" : 0,
        "color_tolerance_bias" : 0,
        "wht_weight_bias" : 0,
        "gwd_weight_bias" : 0,
        "r_extra_gain_bias" : 0,
        "g_extra_gain_bias" : 0,
        "b_extra_gain_bias" : 0
      },
      {
        "k" : 0,
        "color_tolerance_bias" : 0,
        "wht_weight_bias" : 0,
        "gwd_weight_bias" : 0,
        "r_extra_gain_bias" : 0,
        "g_extra_gain_bias" : 0,
        "b_extra_gain_bias" : 0
      },
      {
        "k" : 0,
        "color_tolerance_bias" : 0,
        "wht_weight_bias" : 0,
        "gwd_weight_bias" : 0,
        "r_extra_gain_bias" : 0,
        "g_extra_gain_bias" : 0,
        "b_extra_gain_bias" : 0
      },
      {
        "k" : 0,
        "color_tolerance_bias" : 0,
        "wht_weight_bias" : 0,
        "gwd_weight_bias" : 0,
        "r_extra_gain_bias" : 0,
        "g_extra_gain_bias" : 0,
        "b_extra_gain_bias" : 0
      }
    ],
    "delta_table_list": [
      {
        "gain": [
          0,
          0,
          0,
          0
        ]
      },
      {
        "gain": [
          0,
          0,
          0,
          0
        ]
      },
      {
        "gain": [
          0,
          0,
          0,
          0
        ]
      },
      {
        "gain": [
          0,
          0,
          0,
          0
        ]
      },
      {
        "gain": [
          0,
          0,
          0,
          0
        ]
      },
      {
        "gain": [
          0,
          0,
          0,
          0
        ]
      },
      {
        "gain": [
          0,
          0,
          0,
          0
        ]
      },
      {
        "gain": [
          0,
          0,
          0,
          0
        ]
      }
    ]
  }
}
