{
  "version": "HC1703_HC1783S_r3_4_7",
  "module": "dip_nr",
  "cmd_id": "AGTX_CMD_DIP_NR",
  "json_content": {
    "video_dev_idx": 0,
    "mode": 0,
    "motion_comp": 2,
    "ghost_remove": 0,
    "ma_y_strength": 28,
    "mc_y_strength": 30,
    "ma_c_strength": 20,
    "ratio_3d": 4,
    "trail_suppress": 0,
    "mc_y_level_offset": 0,
    "me_frame_fallback_en": 0,
    "auto_y_level_3d_list": [
      160,
      175,
      180,
      200,
      211,
      220,
      230,
      240,
      250,
      255,
      255
    ],
    "auto_c_level_3d_list": [
      130,
      146,
      162,
      178,
      194,
      210,
      226,
      226,
      226,
      226,
      226
    ],
    "auto_y_level_2d_list": [
      100,
      100,
      100,
      100,
      100,
      100,
      100,
      100,
      100,
      100,
      100
    ],
    "auto_c_level_2d_list": [
      150,
      150,
      150,
      150,
      255,
      255,
      150,
      150,
      150,
      150,
      150
    ],
    "manual_y_level_3d": 128,
    "manual_c_level_3d": 128,
    "manual_y_level_2d": 128,
    "manual_c_level_2d": 128
  }
}