{
  "version": "HC1703_HC1783S_r3_4_7",
  "module": "dip_hdr_synth",
  "cmd_id": "AGTX_CMD_DIP_HDR_SYNTH",
  "json_content": {
    "video_dev_idx": 0,
    "weight_se_weight_th_min": 240,
    "weight_se_weight_slope": 56,
    "weight_se_weight_min": 1,
    "weight_se_weight_max": 63,
    "weight_le_weight_th_max": 3840,
    "weight_le_weight_slope": 14,
    "weight_le_weight_min": 1,
    "weight_le_weight_max": 63,
    "local_fb_th": 44
  }
}