{
	"color_mode":"AYUV_3544",
    "channel":[0],
	"rect":[[1920, 1080], [1280, 720]],
	"regions":
	[
		{
			"region_num":2,
			"region":[[256, 135, 170, 100], [1024, 250, 170, 150]],
			"src":
			[
				{
					"type":"line",
					"line_num":1,
					"lines":[[[256, 135], [426, 235]]],
					"thickness":10,
					"color":[0,0,0,255]
				},
				{
					"type":"line",
					"line_num":1,
					"lines":[[[1024, 280], [1194, 280]]],
					"thickness":10,
					"color":[0,0,255,255]
				}
			]
		},
		{
			"region_num":3,
			"region":[[160, 90, 320, 180], [800, 90, 320, 135], [160, 290, 320, 180]],
			"src":
			[
				{
					"type":"line",
					"line_num":4,
					"lines":[[[160, 90], [260, 190]], [[160, 90], [260, 200]], [[160, 90], [160, 270]], [[480, 90], [480, 270]]],
					"thickness":10,
					"color":[0,255,0,255]
				},
				{
					"type":"line",
					"line_num":3,
					"lines":[[[800, 90], [1120, 90]], [[960, 135], [800, 90]], [[960, 135], [1120, 90]]],
					"thickness":10,
					"color":[10,0,255,255]
				},
				{
					"type":"line",
					"line_num":5,
					"lines":[[[240, 290], [160, 335]], [[160, 335], [480, 335]], [[480, 335], [480, 470]], [[480, 470], [240, 470]], [[240, 470], [240, 290]]],
					"thickness":10,
					"color":[255,0,0,255]
				}
			]
		}
	]
}