{
    "color_mode":"AYUV_3544",
	"channel":[0],
	"rect":[[1280, 720], [1280, 720]],
	"regions":
	[
		{
			"region_num":2,
			"region":[
				[16,16,503,118],[16, 540, 503, 118]
			],
			"src":
			[
				{
					"type":"utf8",
					"ttf_path":"/system/mpp/font/SourceHanSansTC-Normal.otf",
					"txt":"this is 2021-08-02",
					"size":35,
					"backcol":"TRANSPARENT",
					"forecol":[255,255,255],
					"outline_width":2,
					"outcol":[255, 5, 0]
				},
				{
					"type":"unicode",
					"ttf_path":"/system/mpp/font/SourceHanSansTC-Normal.otf",
					"txt":"timestamp",
					"size":30,
					"backcol":"TRANSPARENT",
					"forecol":[255, 13, 0],
					"outline_width":1,
					"outcol":[255, 255, 255]
				}
			]
		},
		{
			"region_num":2,
			"region":[
				[16,16,200,118],[16, 540, 400, 118]  
			],
			"src":[
				{
				"type":"utf8",
				"ttf_path":"/system/mpp/font/SourceHanSansTC-Normal.otf",
				"txt":"Camera 01",
				"size":35,
				"backcol":"WHITE",
				"forecol":[25,33,255],
				"outline_width":1,
				"outcol":[0, 0, 0]
				},{
				"type":"unicode",
				"ttf_path":"/system/mpp/font/SourceHanSansTC-Normal.otf",
				"txt":"timestamp",
				"size":25,
				"backcol":"BLACK",
				"forecol":[128,255,25],
				"outline_width":1,
				"outcol":[255, 255, 255]
				}
			]
		}
	]
}