{
  "cmd_id": "AGTX_CMD_DIP_CSM",
  "json_content": {
    "video_dev_idx": 0,
    "mode": 0,
    "hue": 10,
    "bw_en": false,
    "manual_sat": 128,
    "auto_sat_table": [
      140,
      130,
      130,
      120,
      100,
      100,
      100,
      80,
      50,
      20,
      20
    ]
  }
}