{
    "obj_life_th": 16,
    "target_idx": 0,
    "api": "FACERECO",
    "data_fmt": "MPI_RGB",
    "url": "inapp",
    "snapshot_width": 1280,
    "snapshot_height": 720,
    "pos_stop_count_th": 2,
    "pos_classify_period": 90,
    "neg_classify_period": 25,
    "obj_exist_classify_period": 0,
    "face_reco_model": "/system/eaif/models/facereco/inapp_facereco.ini",
    "inf_cmd": "NONE",
    "inf_with_obj_list": 1,
}
