{
  "cmd_id": "AGTX_CMD_DIP_AWB",
  "json_content": {
    "video_dev_idx": 0,
    "speed": 64,
    "low_k": 2000,
    "high_k": 9000,
    "r_extra_gain": 130,
    "g_extra_gain": 128,
    "b_extra_gain": 127,
    "max_lum_gain": 96,
    "k_table_valid_size": 7,
    "wht_weight": 64,
    "gwd_weight": 196,
    "color_tolerance": 96,
    "wht_density": 3,
    "over_exp_th": 16600,
    "k_table_list": [
      {
        "k": 2000,
        "gain": [
          255,
          119,
          682,
          256
        ],
        "maxtrix": [
          1470,
          1002,
          -425,
          -2495,
          4610,
          -66,
          -820,
          -3436,
          6305
        ]
      },
      {
        "k": 2700,
        "gain": [
          255,
          174,
          390,
          256
        ],
        "maxtrix": [
          1996,
          218,
          -167,
          -1468,
          3997,
          -480,
          -3,
          -4247,
          6298
        ]
      },
      {
        "k": 4000,
        "gain": [
          255,
          220,
          343,
          256
        ],
        "maxtrix": [
          1606,
          44,
          397,
          -1268,
          3144,
          171,
          339,
          -2574,
          4282
        ]
      },
      {
        "k": 5000,
        "gain": [
          255,
          259,
          251,
          256
        ],
        "maxtrix": [
          2494,
          -1034,
          587,
          -378,
          2225,
          200,
          262,
          -2027,
          3813
        ]
      },
      {
        "k": 6500,
        "gain": [
          255,
          295,
          217,
          256
        ],
        "maxtrix": [
          2459,
          -1228,
          816,
          -311,
          1913,
          446,
          160,
          -1916,
          3804
        ]
      },
      {
        "k": 8000,
        "gain": [
          256,
          315,
          264,
          255
        ],
        "maxtrix": [
          2668,
          -862,
          241,
          -740,
          3212,
          -423,
          262,
          -3025,
          4811
        ]
      },
      {
        "k": 9000,
        "gain": [
          255,
          437,
          127,
          256
        ],
        "maxtrix": [
          3515,
          -1970,
          502,
          -126,
          2282,
          -108,
          -87,
          -937,
          3072
        ]
      },
      {
        "k": 0,
        "gain": [
          256,
          256,
          256,
          256
        ],
        "maxtrix": [
          2048,
          0,
          0,
          0,
          2048,
          0,
          0,
          0,
          2048
        ]
      }
    ],
    "delta_table_list": [
      {
        "gain": [
          0,
          0,
          0,
          0
        ]
      },
      {
        "gain": [
          0,
          0,
          0,
          0
        ]
      },
      {
        "gain": [
          0,
          0,
          0,
          0
        ]
      },
      {
        "gain": [
          0,
          0,
          0,
          0
        ]
      },
      {
        "gain": [
          0,
          0,
          0,
          0
        ]
      },
      {
        "gain": [
          0,
          0,
          0,
          0
        ]
      },
      {
        "gain": [
          0,
          0,
          0,
          0
        ]
      },
      {
        "gain": [
          0,
          0,
          0,
          0
        ]
      }
    ],
    "k_table_bias_list": [
      {
        "k": 2000,
        "color_tolerance_bias": 0,
        "wht_weight_bias": 0,
        "gwd_weight_bias": 0,
        "r_extra_gain_bias": 0,
        "g_extra_gain_bias": 1,
        "b_extra_gain_bias": 2
      },
      {
        "k": 2700,
        "color_tolerance_bias": 0,
        "wht_weight_bias": 0,
        "gwd_weight_bias": 0,
        "r_extra_gain_bias": -1,
        "g_extra_gain_bias": 0,
        "b_extra_gain_bias": 2
      },
      {
        "k": 4000,
        "color_tolerance_bias": 32,
        "wht_weight_bias": 0,
        "gwd_weight_bias": 0,
        "r_extra_gain_bias": 2,
        "g_extra_gain_bias": 0,
        "b_extra_gain_bias": 2
      },
      {
        "k": 5000,
        "color_tolerance_bias": 32,
        "wht_weight_bias": 0,
        "gwd_weight_bias": 0,
        "r_extra_gain_bias": 4,
        "g_extra_gain_bias": 0,
        "b_extra_gain_bias": 1
      },
      {
        "k": 6500,
        "color_tolerance_bias": 32,
        "wht_weight_bias": 0,
        "gwd_weight_bias": 0,
        "r_extra_gain_bias": 4,
        "g_extra_gain_bias": 0,
        "b_extra_gain_bias": 1
      },
      {
        "k": 8000,
        "color_tolerance_bias": 0,
        "wht_weight_bias": 0,
        "gwd_weight_bias": 0,
        "r_extra_gain_bias": 0,
        "g_extra_gain_bias": 0,
        "b_extra_gain_bias": 0
      },
      {
        "k": 9000,
        "color_tolerance_bias": 0,
        "wht_weight_bias": 0,
        "gwd_weight_bias": 0,
        "r_extra_gain_bias": 0,
        "g_extra_gain_bias": 0,
        "b_extra_gain_bias": 0
      },
      {
        "k": 0,
        "color_tolerance_bias": 0,
        "wht_weight_bias": 0,
        "gwd_weight_bias": 0,
        "r_extra_gain_bias": 0,
        "g_extra_gain_bias": 0,
        "b_extra_gain_bias": 0
      }
    ]
  }
}