{
  "cmd_id": "AGTX_CMD_VIDEO_STRM_CONF",
  "json_content": {
    "video_dev_idx": 0,
    "video_strm_cnt": 1,
    "video_strm_list": [
      {
        "video_strm_idx": 0,
        "strm_en": 1,
        "width": 2160,
        "height": 1080,
        "output_fps": 12,
        "rotate": 0,
        "mirr_en": 0,
        "flip_en": 0,
        "venc_type": 0,
        "venc_profile": 1,
        "rc_mode": 0,
        "gop_size": 24,
        "cbr_bit_rate": 1536,
        "cbr_min_qp": 10,
        "cbr_max_qp": 46,
        "fluc_level": 0,
        "scene_smooth": 5,
        "regression_speed": 0,
        "i_continue_weight": 5,
        "vbr_max_bit_rate": 1024,
        "vbr_quality_level_index": 4,
        "cqp_i_frame_qp": 20,
        "cqp_p_frame_qp": 28,
        "obs": 0
      },
      {
        "video_strm_idx": 1,
        "strm_en": 1,
        "width": 768,
        "height": 432,
        "output_fps": 12,
        "rotate": 0,
        "mirr_en": 0,
        "flip_en": 0,
        "venc_type": 0,
        "venc_profile": 1,
        "rc_mode": 0,
        "gop_size": 24,
        "cbr_bit_rate": 512,
        "cbr_min_qp": 10,
        "cbr_max_qp": 46,
        "fluc_level": 0,
        "scene_smooth": 5,
        "regression_speed": 0,
        "i_continue_weight": 5,
        "vbr_max_bit_rate": 512,
        "vbr_quality_level_index": 4,
        "cqp_i_frame_qp": 20,
        "cqp_p_frame_qp": 28,
        "obs": 0
      }
    ]
  }
}
