{
  "cmd_id": "AGTX_CMD_DIP_NR",
  "json_content": {
    "video_dev_idx": 0,
    "mode": 0,
    "motion_comp": 2,
    "trail_suppress": 0,
    "ghost_remove": 0,
    "ma_y_strength": 27,
    "mc_y_strength": 30,
    "ma_c_strength": 24,
    "ratio_3d": 4,
    "mc_y_level_offset": 0,
    "me_frame_fallback_en": 0,
    "auto_y_level_3d_list": [
      101,
      125,
      131,
      143,
      155,
      179,
      191,
      197,
      203,
      203,
      203
    ],
    "auto_c_level_3d_list": [
      0,
      37,
      62,
      71,
      80,
      89,
      98,
      103,
      103,
      103,
      103
    ],
    "auto_y_level_2d_list": [
      100,
      100,
      100,
      100,
      100,
      100,
      100,
      100,
      100,
      100,
      100
    ],
    "auto_c_level_2d_list": [
      150,
      150,
      150,
      150,
      150,
      150,
      150,
      150,
      150,
      150,
      150
    ],
    "manual_y_level_3d": 128,
    "manual_c_level_3d": 128,
    "manual_y_level_2d": 128,
    "manual_c_level_2d": 128
  }
}
