{
  "version": "HC1703_HC1783S_r3_4_7",
  "module": "dip_ae",
  "cmd_id": "AGTX_CMD_DIP_AE",
  "json_content": {
    "video_dev_idx": 0,
    "brightness": 7600,
    "exp_strategy": "HI_LIGHT_SUPPRES",
    "exp_strength": 2,
    "roi_luma_weight": 12,
    "roi_awb_weight": 0,
    "roi_zone_lum_avg_weight": 24,
    "max_sys_gain": 2048,
    "min_sys_gain": 32,
    "max_sensor_gain": 7938,
    "min_sensor_gain": 32,
    "max_isp_gain": 32,
    "min_isp_gain": 32,
    "fps_mode": "VARIABLE",
    "frame_rate": 30,
    "slow_frame_rate": 12,
    "gain_thr_up": 256,
    "gain_thr_down": 512,
    "speed": 120,
    "black_speed_bias": 128,
    "tolerance": 700,
    "white_delay_frame": 0,
    "black_delay_frame": 7,
    "interval": 0,
    "max_inttime": 10000000,
    "min_inttime": 0,
    "anti_flicker": {
      "enable": true,
      "frequency": 60,
      "luma_delta": 0
    },
    "manual": {
      "enabled": false,
      "flag": 18,
      "exp_value": 20000,
      "inttime": 12000,
      "sensor_gain": 32,
      "isp_gain": 32,
      "sys_gain": 32
    },
    "zone_weight": {
      "mode": "MANUAL",
      "manual_table": [
        1,
        1,
        1,
        1,
        1,
        1,
        1,
        1,
        1,
        1,
        2,
        2,
        2,
        2,
        1,
        1,
        1,
        2,
        2,
        2,
        2,
        2,
        2,
        1,
        1,
        2,
        2,
        2,
        2,
        2,
        2,
        1,
        1,
        2,
        2,
        2,
        2,
        2,
        2,
        1,
        1,
        2,
        2,
        2,
        2,
        2,
        2,
        1,
        1,
        1,
        2,
        2,
        2,
        2,
        1,
        1,
        1,
        1,
        1,
        1,
        1,
        1,
        1,
        1
      ]
    }
  }
}