{
  "version": "HC1703_HC1783S_r3_4_7",
  "module": "dip_awb",
  "cmd_id": "AGTX_CMD_DIP_AWB",
  "json_content": {
    "video_dev_idx": 0,
    "speed": 64,
    "low_k": 2700,
    "high_k": 7500,
    "r_extra_gain": 128,
    "g_extra_gain": 128,
    "b_extra_gain": 128,
    "max_lum_gain": 96,
    "wht_weight": 64,
    "gwd_weight": 196,
    "color_tolerance": 96,
    "wht_density": 3,
    "over_exp_th": 13000,
    "ccm_domain": "GAMMA_ENCODED",
    "k_table_valid_size": 5,
    "k_table_list": [
      {
        "k": 2700,
        "gain": [
          256,
          181,
          469,
          256
        ],
        "maxtrix": [
          2629,
          -465,
          -116,
          -1750,
          4081,
          -282,
          115,
          -3174,
          5108
        ]
      },
      {
        "k": 4000,
        "gain": [
          256,
          225,
          347,
          256
        ],
        "maxtrix": [
          2432,
          -533,
          149,
          -1414,
          3706,
          -244,
          92,
          -2164,
          4120
        ]
      },
      {
        "k": 5000,
        "gain": [
          256,
          262,
          252,
          256
        ],
        "maxtrix": [
          2711,
          -841,
          178,
          -1285,
          4113,
          -780,
          292,
          -2371,
          4127
        ]
      },
      {
        "k": 6500,
        "gain": [
          256,
          293,
          220,
          256
        ],
        "maxtrix": [
          2542,
          -748,
          254,
          -1213,
          3984,
          -723,
          133,
          -2013,
          3928
        ]
      },
      {
        "k": 7500,
        "gain": [
          256,
          341,
          213,
          256
        ],
        "maxtrix": [
          3072,
          -1036,
          12,
          -946,
          3882,
          -887,
          220,
          -2119,
          3947
        ]
      },
      {
        "k": 0,
        "gain": [
          256,
          256,
          256,
          256
        ],
        "maxtrix": [
          2048,
          0,
          0,
          0,
          2048,
          0,
          0,
          0,
          2048
        ]
      },
      {
        "k": 0,
        "gain": [
          256,
          256,
          256,
          256
        ],
        "maxtrix": [
          2048,
          0,
          0,
          0,
          2048,
          0,
          0,
          0,
          2048
        ]
      },
      {
        "k": 0,
        "gain": [
          256,
          256,
          256,
          256
        ],
        "maxtrix": [
          2048,
          0,
          0,
          0,
          2048,
          0,
          0,
          0,
          2048
        ]
      }
    ],
    "delta_table_list": [
      {
        "gain": [
          0,
          0,
          0,
          0
        ]
      },
      {
        "gain": [
          0,
          0,
          0,
          0
        ]
      },
      {
        "gain": [
          0,
          0,
          0,
          0
        ]
      },
      {
        "gain": [
          0,
          0,
          0,
          0
        ]
      },
      {
        "gain": [
          0,
          0,
          0,
          0
        ]
      },
      {
        "gain": [
          0,
          0,
          0,
          0
        ]
      },
      {
        "gain": [
          0,
          0,
          0,
          0
        ]
      },
      {
        "gain": [
          0,
          0,
          0,
          0
        ]
      }
    ],
    "k_table_bias_list": [
      {
        "k": 2700,
        "color_tolerance_bias": 0,
        "wht_weight_bias": 0,
        "gwd_weight_bias": 0,
        "r_extra_gain_bias": 0,
        "g_extra_gain_bias": 0,
        "b_extra_gain_bias": 0
      },
      {
        "k": 4000,
        "color_tolerance_bias": 0,
        "wht_weight_bias": 0,
        "gwd_weight_bias": 0,
        "r_extra_gain_bias": 0,
        "g_extra_gain_bias": 0,
        "b_extra_gain_bias": 0
      },
      {
        "k": 5000,
        "color_tolerance_bias": 0,
        "wht_weight_bias": 0,
        "gwd_weight_bias": 0,
        "r_extra_gain_bias": 0,
        "g_extra_gain_bias": 0,
        "b_extra_gain_bias": 0
      },
      {
        "k": 6500,
        "color_tolerance_bias": 0,
        "wht_weight_bias": 0,
        "gwd_weight_bias": 0,
        "r_extra_gain_bias": 0,
        "g_extra_gain_bias": 0,
        "b_extra_gain_bias": 0
      },
      {
        "k": 7500,
        "color_tolerance_bias": 0,
        "wht_weight_bias": 0,
        "gwd_weight_bias": 0,
        "r_extra_gain_bias": 0,
        "g_extra_gain_bias": 0,
        "b_extra_gain_bias": 0
      },
      {
        "k": 0,
        "color_tolerance_bias": 0,
        "wht_weight_bias": 0,
        "gwd_weight_bias": 0,
        "r_extra_gain_bias": 0,
        "g_extra_gain_bias": 0,
        "b_extra_gain_bias": 0
      },
      {
        "k": 0,
        "color_tolerance_bias": 0,
        "wht_weight_bias": 0,
        "gwd_weight_bias": 0,
        "r_extra_gain_bias": 0,
        "g_extra_gain_bias": 0,
        "b_extra_gain_bias": 0
      },
      {
        "k": 0,
        "color_tolerance_bias": 0,
        "wht_weight_bias": 0,
        "gwd_weight_bias": 0,
        "r_extra_gain_bias": 0,
        "g_extra_gain_bias": 0,
        "b_extra_gain_bias": 0
      }
    ]
  }
}