{
  "version": "HC1703_HC1783S_r3_4_7",
  "module": "dip_coring",
  "cmd_id": "AGTX_CMD_DIP_CORING",
  "json_content": {
    "video_dev_idx": 0,
    "mode": 0,
    "coring_slope": 512,
    "auto_abs_th_list": [
      1,
      1,
      1,
      1,
      1,
      1,
      1,
      1,
      1,
      1,
      1
    ],
    "manual_abs_th": 5
  }
}