{
  "version": "HC1703_HC1783S_r3_4_7",
  "module": "dip_enh",
  "cmd_id": "AGTX_CMD_DIP_ENH",
  "json_content": {
    "video_dev_idx": 0,
    "mode": 0,
    "auto_y_txr_strength_list": [
      0,
      0,
      20,
      20,
      20,
      20,
      22,
      26,
      30,
      34,
      38
    ],
    "auto_y_txr_edge_list": [
      32,
      32,
      32,
      32,
      32,
      32,
      32,
      32,
      32,
      32,
      32
    ],
    "auto_y_txr_detail_list": [
      0,
      0,
      -4,
      -8,
      -8,
      -8,
      -8,
      -8,
      -8,
      -10,
      -12
    ],
    "auto_y_zone_strength_list": [
      0,
      0,
      20,
      30,
      30,
      30,
      128,
      256,
      378,
      512,
      1023
    ],
    "auto_y_zone_edge_list": [
      32,
      32,
      32,
      32,
      32,
      32,
      32,
      32,
      32,
      32,
      32
    ],
    "auto_y_zone_detail_list": [
      0,
      0,
      -4,
      -8,
      -8,
      -8,
      -8,
      -8,
      -8,
      -10,
      -12
    ],
    "auto_y_zone_radius_list": [
      0,
      0,
      0,
      0,
      1,
      1,
      1,
      1,
      1,
      2,
      2
    ],
    "auto_y_zone_weight_list": [
      118,
      128,
      128,
      128,
      128,
      128,
      128,
      128,
      128,
      128,
      128
    ],
    "auto_c_radius_list": [
      0,
      0,
      0,
      0,
      1,
      1,
      1,
      1,
      1,
      2,
      2
    ],
    "auto_c_strength_list": [
      0,
      0,
      128,
      256,
      256,
      256,
      256,
      256,
      256,
      256,
      256
    ],
    "auto_c_edge_list": [
      32,
      32,
      32,
      32,
      32,
      32,
      32,
      32,
      32,
      32,
      32
    ],
    "manual_y_txr_strength": 24,
    "manual_y_txr_edge": 32,
    "manual_y_txr_detail": 5,
    "manual_y_zone_strength": 512,
    "manual_y_zone_edge": 0,
    "manual_y_zone_detail": 10,
    "manual_y_zone_radius": 2,
    "manual_y_zone_weight": 0,
    "manual_c_radius": 0,
    "manual_c_strength": 0,
    "manual_c_edge": 0
  }
}