{
  "cmd_id": "AGTX_CMD_RES_OPTION",
  "json_content": {
    "strm_idx": -1,
    "strm": [
      {
        "res_idx": -1,
        "res": [
          {
            "width": 1920,
            "height": 1080,
            "max_frame_rate": [
              15,
              15,
              0,
              0,
              0,
              0,
              0,
              0
            ],
            "frame_rate_list": [
              30,
              29,
              28,
              27,
              26,
              25,
              24,
              23,
              22,
              21,
              20,
              19,
              18,
              17,
              16,
              15,
              14,
              13,
              12,
              11,
              10,
              9,
              8,
              7,
              6,
              5,
              4,
              3,
              2,
              1
            ]
          },
          {
            "width": 1280,
            "height": 720,
            "max_frame_rate": [
              15,
              15,
              0,
              0,
              0,
              0,
              0,
              0
            ],
            "frame_rate_list": [
              30,
              29,
              28,
              27,
              26,
              25,
              24,
              23,
              22,
              21,
              20,
              19,
              18,
              17,
              16,
              15,
              14,
              13,
              12,
              11,
              10,
              9,
              8,
              7,
              6,
              5,
              4,
              3,
              2,
              1
            ]
          },
          {
            "width": 704,
            "height": 576,
            "max_frame_rate": [
              15,
              15,
              0,
              0,
              0,
              0,
              0,
              0
            ],
            "frame_rate_list": [
              30,
              29,
              28,
              27,
              26,
              25,
              24,
              23,
              22,
              21,
              20,
              19,
              18,
              17,
              16,
              15,
              14,
              13,
              12,
              11,
              10,
              9,
              8,
              7,
              6,
              5,
              4,
              3,
              2,
              1
            ]
          }
        ]
      },
      {
        "res_idx": -1,
        "res": [
          {
            "width": 704,
            "height": 576,
            "max_frame_rate": [
              15,
              15,
              0,
              0,
              0,
              0,
              0,
              0
            ],
            "frame_rate_list": [
              30,
              29,
              28,
              27,
              26,
              25,
              24,
              23,
              22,
              21,
              20,
              19,
              18,
              17,
              16,
              15,
              14,
              13,
              12,
              11,
              10,
              9,
              8,
              7,
              6,
              5,
              4,
              3,
              2,
              1
            ]
          },
          {
            "width": 640,
            "height": 480,
            "max_frame_rate": [
              15,
              15,
              0,
              0,
              0,
              0,
              0,
              0
            ],
            "frame_rate_list": [
              30,
              29,
              28,
              27,
              26,
              25,
              24,
              23,
              22,
              21,
              20,
              19,
              18,
              17,
              16,
              15,
              14,
              13,
              12,
              11,
              10,
              9,
              8,
              7,
              6,
              5,
              4,
              3,
              2,
              1
            ]
          }
        ]
      }
    ]
  }
}
