{
	"day_action": "/system/mpp/script/ir_led.sh 56 off; /system/mpp/script/ir_cut.sh 10 11 active; /system/bin/switch_day_night_mode -c1",
	"night_action": "/system/bin/switch_day_night_mode -c2; /system/mpp/script/ir_cut.sh 10 11 remove; usleep 500000; /system/mpp/script/ir_led.sh 56 on;",
	"adc": {
		"enabled": 0,
		"period": 1000,
		"chn": 0,
		"day_th": 530,
		"night_th": 1030
	}
}