{
  "version": "HC1703_HC1783S_r3_4_7",
  "module": "dip_stat",
  "cmd_id": "AGTX_CMD_DIP_STAT",
  "json_content": {
    "video_dev_idx": 0,
    "wb": {
      "lum_max": 11000,
      "lum_min": 256,
      "lum_slope": 3,
      "rb_point_x": [
        56,
        78,
        76,
        60,
        60
      ],
      "rb_point_y": [
        58,
        46,
        56,
        88,
        54
      ],
      "rb_rgn_th": [
        0,
        0,
        1,
        0
      ],
      "rb_rgn_slope": [
        12,
        12,
        12,
        12
      ]
    }
  }
}