{
  "version": "HC1703_HC1783S_r3_4_7",
  "module": "dip_ctrl",
  "cmd_id": "AGTX_CMD_DIP_CTRL",
  "json_content": {
    "video_dev_idx": 0,
    "is_dip_en": 1,
    "is_ae_en": 1,
    "is_iso_en": 1,
    "is_awb_en": 1,
    "is_csm_en": 1,
    "is_te_en": 1,
    "is_pta_en": 1,
    "is_nr_en": 1,
    "is_shp_en": 1,
    "is_gamma_en": 1,
    "is_dpc_en": 1,
    "is_dms_en": 1,
    "is_me_en": 1,
    "is_enh_en": 1,
    "is_coring_en": 0,
    "is_fcs_en": 1
  }
}