{
  "cmd_id": "AGTX_CMD_DIP_CSM",
  "json_content": {
    "video_dev_idx": 0,
    "mode": 0,
    "hue": 0,
    "bw_en": false,
    "manual_sat": 128,
    "auto_sat_table": [
      128,
      120,
      110,
      100,
      80,
      55,
      15,
      15,
      15,
      15,
      15
    ]
  }
}