{
  "cmd_id": "AGTX_CMD_DIP_AWB",
  "json_content": {
    "video_dev_idx": 0,
    "speed": 64,
    "low_k": 2700,
    "high_k": 7500,
    "r_extra_gain": 128,
    "g_extra_gain": 128,
    "b_extra_gain": 128,
    "max_lum_gain": 96,
    "wht_weight": 32,
    "gwd_weight": 196,
    "color_tolerance": 128,
    "wht_density": 3,
    "over_exp_th": 16600,
    "ccm_domain": "GAMMA_ENCODED",
    "k_table_valid_size": 6,
    "k_table_list": [
      {
        "k": 2700,
        "gain": [
          255,
          188,
          377,
          256
        ],
        "maxtrix": [
          2446,
          -58,
          -340,
          -1867,
          4384,
          -469,
          -1323,
          -3787,
          7159
        ]
      },
      {
        "k": 4000,
        "gain": [
          256,
          224,
          315,
          255
        ],
        "maxtrix": [
          2410,
          -431,
          69,
          -1541,
          3807,
          -218,
          -640,
          -2405,
          5094
        ]
      },
      {
        "k": 5000,
        "gain": [
          256,
          257,
          254,
          255
        ],
        "maxtrix": [
          2649,
          -769,
          168,
          -1284,
          4164,
          -832,
          -236,
          -2315,
          4600
        ]
      },
      {
        "k": 6500,
        "gain": [
          256,
          290,
          226,
          255
        ],
        "maxtrix": [
          2574,
          -814,
          288,
          -1216,
          3975,
          -711,
          -279,
          -1814,
          4141
        ]
      },
      {
        "k": 7500,
        "gain": [
          255,
          326,
          219,
          256
        ],
        "maxtrix": [
          2925,
          -966,
          89,
          -857,
          3827,
          -921,
          -76,
          -2002,
          4127
        ]
      },
      {
        "k": 0,
        "gain": [
          256,
          256,
          256,
          256
        ],
        "maxtrix": [
          2048,
          0,
          0,
          0,
          2048,
          0,
          0,
          0,
          2048
        ]
      },
      {
        "k": 0,
        "gain": [
          256,
          256,
          256,
          256
        ],
        "maxtrix": [
          2048,
          0,
          0,
          0,
          2048,
          0,
          0,
          0,
          2048
        ]
      },
      {
        "k": 0,
        "gain": [
          256,
          256,
          256,
          256
        ],
        "maxtrix": [
          2048,
          0,
          0,
          0,
          2048,
          0,
          0,
          0,
          2048
        ]
      }
    ],
    "k_table_bias_list": [
      {
        "k": 2700,
        "color_tolerance_bias": 0,
        "wht_weight_bias": 0,
        "gwd_weight_bias": 0,
        "r_extra_gain_bias": -2,
        "g_extra_gain_bias": 0,
        "b_extra_gain_bias": 1
      },
      {
        "k": 4000,
        "color_tolerance_bias": 0,
        "wht_weight_bias": 0,
        "gwd_weight_bias": 0,
        "r_extra_gain_bias": 2,
        "g_extra_gain_bias": 0,
        "b_extra_gain_bias": 2
      },
      {
        "k": 5000,
        "color_tolerance_bias": 0,
        "wht_weight_bias": 0,
        "gwd_weight_bias": 0,
        "r_extra_gain_bias": 1,
        "g_extra_gain_bias": 0,
        "b_extra_gain_bias": 0
      },
      {
        "k": 6500,
        "color_tolerance_bias": 0,
        "wht_weight_bias": 0,
        "gwd_weight_bias": 0,
        "r_extra_gain_bias": 1,
        "g_extra_gain_bias": 0,
        "b_extra_gain_bias": 0
      },
      {
        "k": 7500,
        "color_tolerance_bias": 0,
        "wht_weight_bias": 0,
        "gwd_weight_bias": 0,
        "r_extra_gain_bias": 0,
        "g_extra_gain_bias": 0,
        "b_extra_gain_bias": -2
      },
      {
        "k": 0,
        "color_tolerance_bias": 0,
        "wht_weight_bias": 0,
        "gwd_weight_bias": 0,
        "r_extra_gain_bias": 0,
        "g_extra_gain_bias": 0,
        "b_extra_gain_bias": 0
      },
      {
        "k": 0,
        "color_tolerance_bias": 0,
        "wht_weight_bias": 0,
        "gwd_weight_bias": 0,
        "r_extra_gain_bias": 0,
        "g_extra_gain_bias": 0,
        "b_extra_gain_bias": 0
      },
      {
        "k": 0,
        "color_tolerance_bias": 0,
        "wht_weight_bias": 0,
        "gwd_weight_bias": 0,
        "r_extra_gain_bias": 0,
        "g_extra_gain_bias": 0,
        "b_extra_gain_bias": 0
      }
    ],
    "delta_table_list": [
      {
        "gain": [
          0,
          0,
          0,
          0
        ]
      },
      {
        "gain": [
          0,
          0,
          0,
          0
        ]
      },
      {
        "gain": [
          0,
          0,
          0,
          0
        ]
      },
      {
        "gain": [
          0,
          0,
          0,
          0
        ]
      },
      {
        "gain": [
          0,
          0,
          0,
          0
        ]
      },
      {
        "gain": [
          0,
          0,
          0,
          0
        ]
      },
      {
        "gain": [
          0,
          0,
          0,
          0
        ]
      },
      {
        "gain": [
          0,
          0,
          0,
          0
        ]
      }
    ]
  }
}