{
  "version": "HC1703_HC1783S_r3_4_7",
  "module": "dip_shp",
  "cmd_id": "AGTX_CMD_DIP_SHP",
  "json_content": {
    "video_dev_idx": 0,
    "mode": 0,
    "manual_shp": 128,
    "auto_shp_table": [
      290,
      270,
      250,
      230,
      210,
      170,
      130,
      80,
      50,
      50,
      0
    ]
  }
}