{
  "version": "HC1703_HC1783S_r3_4_7",
  "module": "dip_stat",
  "cmd_id": "AGTX_CMD_DIP_STAT",
  "json_content": {
    "video_dev_idx": 0,
    "wb": {
      "lum_max": 11000,
      "lum_min": 1500,
      "lum_slope": 3,
      "rb_point_x": [
        48,
        96,
        68,
        48,
        56
      ],
      "rb_point_y": [
        56,
        48,
        68,
        90,
        48
      ],
      "rb_rgn_th": [
        1,
        1,
        1,
        1
      ],
      "rb_rgn_slope": [
        16,
        16,
        16,
        16
      ]
    }
  }
}