{
  "version": "HC1703_HC1783S_r3_4_7",
  "module": "dip_gamma",
  "cmd_id": "AGTX_CMD_DIP_GAMMA",
  "json_content": {
    "video_dev_idx": 0,
    "gamma": 0,
    "gamma_manual": [
      0,
      576,
      1152,
      1704,
      2163,
      2563,
      2921,
      3247,
      3549,
      4095,
      4584,
      5030,
      5442,
      5826,
      6188,
      6530,
      6855,
      7166,
      7464,
      7751,
      8027,
      8294,
      8552,
      8803,
      9046,
      9514,
      9959,
      10383,
      10790,
      11182,
      11559,
      11924,
      12277,
      12619,
      12951,
      13275,
      13590,
      13897,
      14198,
      14491,
      14778,
      15334,
      15869,
      16383,
      16383,
      16383,
      16383,
      16383,
      16383,
      16383,
      16383,
      16383,
      16383,
      16383,
      16383,
      16383,
      16383,
      16383,
      16383,
      16384
    ]
  }
}