{
  "version": "HC1703_HC1783S_r3_4_7",
  "module": "dip_dcc",
  "cmd_id": "AGTX_CMD_DIP_DCC",
  "json_content": {
    "video_dev_idx": 0,
    "dcc": [
      {
        "gain": [
          1039,
          1548,
          1458,
          1039
        ],
        "offset": [
          0,
          0,
          0,
          0
        ]
      },
      {
        "gain": [
          1039,
          1548,
          1458,
          1039
        ],
        "offset": [
          0,
          0,
          0,
          0
        ]
      }
    ]
  }
}