{
  "version": "HC1703_HC1783S_r3_4_7",
  "module": "dip_awb",
  "cmd_id": "AGTX_CMD_DIP_AWB",
  "json_content": {
    "video_dev_idx": 0,
    "speed": 64,
    "low_k": 2700,
    "high_k": 10000,
    "r_extra_gain": 127,
    "g_extra_gain": 128,
    "b_extra_gain": 130,
    "max_lum_gain": 96,
    "wht_weight": 80,
    "gwd_weight": 255,
    "color_tolerance": 255,
    "wht_density": 4,
    "over_exp_th": 1000,
    "ccm_domain": "GAMMA_ENCODED",
    "k_table_valid_size": 6,
    "k_table_list": [
      {
        "k": 2700,
        "gain": [
          256,
          178,
          332,
          256
        ],
        "maxtrix": [
          3597,
          -441,
          -1109,
          -2366,
          5697,
          -1283,
          -3570,
          -5122,
          10740
        ]
      },
      {
        "k": 4000,
        "gain": [
          256,
          223,
          292,
          256
        ],
        "maxtrix": [
          3478,
          -1833,
          403,
          -1838,
          4739,
          -853,
          -1486,
          -4016,
          7550
        ]
      },
      {
        "k": 5000,
        "gain": [
          256,
          257,
          257,
          256
        ],
        "maxtrix": [
          3819,
          -2340,
          569,
          -1511,
          5338,
          -1779,
          -799,
          -3717,
          6564
        ]
      },
      {
        "k": 6500,
        "gain": [
          256,
          281,
          238,
          256
        ],
        "maxtrix": [
          3793,
          -2483,
          738,
          -1444,
          5176,
          -1684,
          -659,
          -3398,
          6104
        ]
      },
      {
        "k": 7500,
        "gain": [
          256,
          296,
          233,
          256
        ],
        "maxtrix": [
          4169,
          -2403,
          282,
          -1181,
          5044,
          -1815,
          -521,
          -3271,
          5840
        ]
      },
      {
        "k": 10000,
        "gain": [
          256,
          392,
          168,
          256
        ],
        "maxtrix": [
          5844,
          -4190,
          394,
          -845,
          5150,
          -2257,
          -146,
          -2486,
          4680
        ]
      },
      {
        "k": 0,
        "gain": [
          256,
          256,
          256,
          256
        ],
        "maxtrix": [
          2048,
          0,
          0,
          0,
          2048,
          0,
          0,
          0,
          2048
        ]
      },
      {
        "k": 0,
        "gain": [
          256,
          256,
          256,
          256
        ],
        "maxtrix": [
          2048,
          0,
          0,
          0,
          2048,
          0,
          0,
          0,
          2048
        ]
      }
    ],
    "delta_table_list": [
      {
        "gain": [
          0,
          0,
          0,
          0
        ]
      },
      {
        "gain": [
          0,
          0,
          0,
          0
        ]
      },
      {
        "gain": [
          0,
          0,
          0,
          0
        ]
      },
      {
        "gain": [
          0,
          0,
          0,
          0
        ]
      },
      {
        "gain": [
          0,
          0,
          0,
          0
        ]
      },
      {
        "gain": [
          0,
          0,
          0,
          0
        ]
      },
      {
        "gain": [
          0,
          0,
          0,
          0
        ]
      },
      {
        "gain": [
          0,
          0,
          0,
          0
        ]
      }
    ],
    "k_table_bias_list": [
      {
        "k": 2700,
        "color_tolerance_bias": 0,
        "wht_weight_bias": 0,
        "gwd_weight_bias": 0,
        "r_extra_gain_bias": 0,
        "g_extra_gain_bias": 0,
        "b_extra_gain_bias": 0
      },
      {
        "k": 4000,
        "color_tolerance_bias": 0,
        "wht_weight_bias": 0,
        "gwd_weight_bias": 0,
        "r_extra_gain_bias": 0,
        "g_extra_gain_bias": 0,
        "b_extra_gain_bias": 0
      },
      {
        "k": 5000,
        "color_tolerance_bias": 0,
        "wht_weight_bias": 0,
        "gwd_weight_bias": 0,
        "r_extra_gain_bias": 0,
        "g_extra_gain_bias": 0,
        "b_extra_gain_bias": 0
      },
      {
        "k": 6500,
        "color_tolerance_bias": 0,
        "wht_weight_bias": 0,
        "gwd_weight_bias": 0,
        "r_extra_gain_bias": 0,
        "g_extra_gain_bias": 0,
        "b_extra_gain_bias": 0
      },
      {
        "k": 7500,
        "color_tolerance_bias": 0,
        "wht_weight_bias": 0,
        "gwd_weight_bias": 0,
        "r_extra_gain_bias": 0,
        "g_extra_gain_bias": 0,
        "b_extra_gain_bias": 0
      },
      {
        "k": 10000,
        "color_tolerance_bias": 0,
        "wht_weight_bias": 0,
        "gwd_weight_bias": 0,
        "r_extra_gain_bias": 0,
        "g_extra_gain_bias": 0,
        "b_extra_gain_bias": 0
      },
      {
        "k": 0,
        "color_tolerance_bias": 0,
        "wht_weight_bias": 0,
        "gwd_weight_bias": 0,
        "r_extra_gain_bias": 0,
        "g_extra_gain_bias": 0,
        "b_extra_gain_bias": 0
      },
      {
        "k": 0,
        "color_tolerance_bias": 0,
        "wht_weight_bias": 0,
        "gwd_weight_bias": 0,
        "r_extra_gain_bias": 0,
        "g_extra_gain_bias": 0,
        "b_extra_gain_bias": 0
      }
    ]
  }
}