{
  "version": "HC1703_HC1783S_r3_4_7",
  "module": "dip_roi",
  "cmd_id": "AGTX_CMD_DIP_ROI",
  "json_content": {
    "video_dev_idx": 0,
    "roi": [
      {
        "luma_roi_sx": 0,
        "luma_roi_sy": 0,
        "luma_roi_ex": 1024,
        "luma_roi_ey": 1024,
        "awb_roi_sx": 0,
        "awb_roi_sy": 128,
        "awb_roi_ex": 1024,
        "awb_roi_ey": 1024,
        "zone_lum_avg_roi_sx": 0,
        "zone_lum_avg_roi_sy": 0,
        "zone_lum_avg_roi_ex": 1024,
        "zone_lum_avg_roi_ey": 1024
      },
      {
        "luma_roi_sx": 0,
        "luma_roi_sy": 0,
        "luma_roi_ex": 1024,
        "luma_roi_ey": 1024,
        "awb_roi_sx": 0,
        "awb_roi_sy": 128,
        "awb_roi_ex": 1024,
        "awb_roi_ey": 1024,
        "zone_lum_avg_roi_sx": 0,
        "zone_lum_avg_roi_sy": 0,
        "zone_lum_avg_roi_ex": 1024,
        "zone_lum_avg_roi_ey": 1024
      }
    ]
  }
}