{
  "cmd_id": "AGTX_CMD_VIDEO_STRM_CONF",
  "json_content": {
    "video_dev_idx": 0,
    "video_strm_cnt": 2,
    "video_strm_list": [
      {
        "video_strm_idx": 0,
        "strm_en": 1,
        "width": 1920,
        "height": 1080,
        "output_fps": 30,
        "rotate": 0,
        "mirr_en": 0,
        "flip_en": 0,
        "venc_type": 0,
        "venc_profile": 0,
        "rc_mode": 1,
        "gop_size": 30,
        "bit_rate": 4096,
        "min_qp": 15,
        "max_qp": 40,
        "max_q_factor": 90,
        "min_q_factor": 10,
        "fluc_level": 0,
        "scene_smooth": 0,
        "regression_speed": 6,
        "i_continue_weight": 0,
        "i_qp_offset": -2,
        "vbr_max_bit_rate": 4096,
        "vbr_quality_level_index": 7,
        "sbr_adjust_br_thres_pc": 70,
        "sbr_adjust_step_times": 20,
        "sbr_converge_frame": 30,
        "cqp_i_frame_qp": 20,
        "cqp_p_frame_qp": 28,
        "cqp_q_factor": 80,
        "obs": 0,
        "obs_off_period": 2
      },
      {
        "video_strm_idx": 1,
        "strm_en": 1,
        "width": 704,
        "height": 576,
        "output_fps": 30,
        "rotate": 0,
        "mirr_en": 0,
        "flip_en": 0,
        "venc_type": 0,
        "venc_profile": 0,
        "rc_mode": 1,
        "gop_size": 30,
        "bit_rate": 800,
        "min_qp": 10,
        "max_qp": 40,
        "max_q_factor": 90,
        "min_q_factor": 10,
        "fluc_level": 0,
        "scene_smooth": 0,
        "regression_speed": 6,
        "i_continue_weight": 0,
        "i_qp_offset": -2,
        "vbr_max_bit_rate": 4096,
        "vbr_quality_level_index": 7,
        "sbr_adjust_br_thres_pc": 70,
        "sbr_adjust_step_times": 20,
        "sbr_converge_frame": 30,
        "cqp_i_frame_qp": 20,
        "cqp_p_frame_qp": 28,
        "cqp_q_factor": 80,
        "obs": 0,
        "obs_off_period": 2
      }
    ]
  }
}
